{
   "page":2,
   "per_page":6,
   "total":12,
   "total_pages":2,
   "data":[
      {
         "id":7,
         "email":"michael.lawson@reqres.in",
         "first_name":"Michael",
         "last_name":"Lawson",
         "avatar":"https://reqres.in/img/faces/7-image.jpg"
      },
      {
         "id":8,
         "email":"lindsay.ferguson@reqres.in",
         "first_name":"Lindsay",
         "last_name":"Ferguson",
         "avatar":"https://reqres.in/img/faces/8-image.jpg"
      },
      {
         "id":9,
         "email":"tobias.funke@reqres.in",
         "first_name":"Tobias",
         "last_name":"Funke",
         "avatar":"https://reqres.in/img/faces/9-image.jpg"
      },
      {
         "id":10,
         "email":"byron.fields@reqres.in",
         "first_name":"Byron",
         "last_name":"Fields",
         "avatar":"https://reqres.in/img/faces/10-image.jpg"
      },
      {
         "id":11,
         "email":"george.edwards@reqres.in",
         "first_name":"George",
         "last_name":"Edwards",
         "avatar":"https://reqres.in/img/faces/11-image.jpg"
      },
      {
         "id":12,
         "email":"ram@reqres.in",
         "first_name":"Ram",
         "last_name":"Eklesia",
         "avatar":"https://scontent.fupg6-1.fna.fbcdn.net/v/t1.18169-9/11080957_1376227336036166_9156455040014161648_n.jpg?_nc_cat=106&ccb=1-3&_nc_sid=09cbfe&_nc_ohc=oV5T4pF_83wAX_kfaav&_nc_ht=scontent.fupg6-1.fna&oh=a90863e09c5b522632495bbee0195bf1&oe=60DAF167"
      },
      {
         "id":14,
         "email":"markzuck@reqres.in",
         "first_name":"Zuck",
         "last_name":"Howell",
         "avatar":"https://upload.wikimedia.org/wikipedia/commons/c/c4/Mark_Zuckerberg_F8_2018_Keynote_%28cropped%29.jpg"
      },
      {
         "id":15,
         "email":"tasyal@reqres.in",
         "first_name":"Tasya",
         "last_name":"",
         "avatar":"https://scontent.fupg6-1.fna.fbcdn.net/v/t1.18169-0/p526x296/24058777_575402016130156_2785084850586857699_n.jpg?_nc_cat=110&ccb=1-3&_nc_sid=8bfeb9&_nc_ohc=e3b3jzMxwEkAX8ORgIV&_nc_ht=scontent.fupg6-1.fna&tp=6&oh=de0101b5ae459eaab6ddb11698346791&oe=60D95EA5"
      },
      {
         "id":16,
         "email":"null@reqres.in",
         "first_name":"unknown",
         "last_name":"melb",
         "avatar":"https://cdn.pixabay.com/photo/2015/10/05/22/37/blank-profile-picture-973460_1280.png"
      }
      
   ],
   "support":{
      "url":"https://reqres.in/#support-heading",
      "text":"To keep ReqRes free, contributions towards server costs are appreciated!"
   }
}
